%YAML 1.1
%TAG !u! tag:unity3d.com,2011:
--- !u!1 &3294506210498269763
GameObject:
  m_ObjectHideFlags: 0
  m_CorrespondingSourceObject: {fileID: 0}
  m_PrefabInstance: {fileID: 0}
  m_PrefabAsset: {fileID: 0}
  serializedVersion: 6
  m_Component:
  - component: {fileID: 12451360507338909}
  - component: {fileID: 2786472025342952535}
  m_Layer: 31
  m_Name: Main Palette
  m_TagString: Untagged
  m_Icon: {fileID: 0}
  m_NavMeshLayer: 0
  m_StaticEditorFlags: 0
  m_IsActive: 1
--- !u!4 &12451360507338909
Transform:
  m_ObjectHideFlags: 0
  m_CorrespondingSourceObject: {fileID: 0}
  m_PrefabInstance: {fileID: 0}
  m_PrefabAsset: {fileID: 0}
  m_GameObject: {fileID: 3294506210498269763}
  m_LocalRotation: {x: 0, y: 0, z: 0, w: 1}
  m_LocalPosition: {x: 0, y: 0, z: 0}
  m_LocalScale: {x: 1, y: 1, z: 1}
  m_Children:
  - {fileID: 7622713221713998811}
  m_Father: {fileID: 0}
  m_RootOrder: 0
  m_LocalEulerAnglesHint: {x: 0, y: 0, z: 0}
--- !u!156049354 &2786472025342952535
Grid:
  m_ObjectHideFlags: 0
  m_CorrespondingSourceObject: {fileID: 0}
  m_PrefabInstance: {fileID: 0}
  m_PrefabAsset: {fileID: 0}
  m_GameObject: {fileID: 3294506210498269763}
  m_Enabled: 1
  m_CellSize: {x: 1.032258, y: 1.032258, z: 0}
  m_CellGap: {x: 0, y: 0, z: 0}
  m_CellLayout: 0
  m_CellSwizzle: 0
--- !u!1 &5624752313627604345
GameObject:
  m_ObjectHideFlags: 0
  m_CorrespondingSourceObject: {fileID: 0}
  m_PrefabInstance: {fileID: 0}
  m_PrefabAsset: {fileID: 0}
  serializedVersion: 6
  m_Component:
  - component: {fileID: 7622713221713998811}
  - component: {fileID: 8882501859890934221}
  - component: {fileID: 7524357107197142353}
  m_Layer: 31
  m_Name: Layer1
  m_TagString: Untagged
  m_Icon: {fileID: 0}
  m_NavMeshLayer: 0
  m_StaticEditorFlags: 0
  m_IsActive: 1
--- !u!4 &7622713221713998811
Transform:
  m_ObjectHideFlags: 0
  m_CorrespondingSourceObject: {fileID: 0}
  m_PrefabInstance: {fileID: 0}
  m_PrefabAsset: {fileID: 0}
  m_GameObject: {fileID: 5624752313627604345}
  m_LocalRotation: {x: -0, y: -0, z: -0, w: 1}
  m_LocalPosition: {x: 0, y: 0, z: 0}
  m_LocalScale: {x: 1, y: 1, z: 1}
  m_Children: []
  m_Father: {fileID: 12451360507338909}
  m_RootOrder: 0
  m_LocalEulerAnglesHint: {x: 0, y: 0, z: 0}
--- !u!1839735485 &8882501859890934221
Tilemap:
  m_ObjectHideFlags: 0
  m_CorrespondingSourceObject: {fileID: 0}
  m_PrefabInstance: {fileID: 0}
  m_PrefabAsset: {fileID: 0}
  m_GameObject: {fileID: 5624752313627604345}
  m_Enabled: 1
  m_Tiles:
  - first: {x: -1, y: -17, z: 0}
    second:
      m_TileIndex: 53
      m_TileSpriteIndex: 41
      m_TileMatrixIndex: 0
      m_TileColorIndex: 0
      m_ObjectToInstantiate: {fileID: 0}
      m_TileFlags: 1
      m_ColliderType: 1
  - first: {x: 0, y: -17, z: 0}
    second:
      m_TileIndex: 57
      m_TileSpriteIndex: 45
      m_TileMatrixIndex: 0
      m_TileColorIndex: 0
      m_ObjectToInstantiate: {fileID: 0}
      m_TileFlags: 1
      m_ColliderType: 1
  - first: {x: 1, y: -17, z: 0}
    second:
      m_TileIndex: 56
      m_TileSpriteIndex: 44
      m_TileMatrixIndex: 0
      m_TileColorIndex: 0
      m_ObjectToInstantiate: {fileID: 0}
      m_TileFlags: 1
      m_ColliderType: 1
  - first: {x: 2, y: -17, z: 0}
    second:
      m_TileIndex: 55
      m_TileSpriteIndex: 43
      m_TileMatrixIndex: 0
      m_TileColorIndex: 0
      m_ObjectToInstantiate: {fileID: 0}
      m_TileFlags: 1
      m_ColliderType: 1
  - first: {x: 3, y: -17, z: 0}
    second:
      m_TileIndex: 54
      m_TileSpriteIndex: 42
      m_TileMatrixIndex: 0
      m_TileColorIndex: 0
      m_ObjectToInstantiate: {fileID: 0}
      m_TileFlags: 1
      m_ColliderType: 1
  - first: {x: -1, y: -16, z: 0}
    second:
      m_TileIndex: 48
      m_TileSpriteIndex: 36
      m_TileMatrixIndex: 0
      m_TileColorIndex: 0
      m_ObjectToInstantiate: {fileID: 0}
      m_TileFlags: 1
      m_ColliderType: 1
  - first: {x: 0, y: -16, z: 0}
    second:
      m_TileIndex: 52
      m_TileSpriteIndex: 40
      m_TileMatrixIndex: 0
      m_TileColorIndex: 0
      m_ObjectToInstantiate: {fileID: 0}
      m_TileFlags: 1
      m_ColliderType: 1
  - first: {x: 1, y: -16, z: 0}
    second:
      m_TileIndex: 51
      m_TileSpriteIndex: 39
      m_TileMatrixIndex: 0
      m_TileColorIndex: 0
      m_ObjectToInstantiate: {fileID: 0}
      m_TileFlags: 1
      m_ColliderType: 1
  - first: {x: 2, y: -16, z: 0}
    second:
      m_TileIndex: 50
      m_TileSpriteIndex: 38
      m_TileMatrixIndex: 0
      m_TileColorIndex: 0
      m_ObjectToInstantiate: {fileID: 0}
      m_TileFlags: 1
      m_ColliderType: 1
  - first: {x: 3, y: -16, z: 0}
    second:
      m_TileIndex: 49
      m_TileSpriteIndex: 37
      m_TileMatrixIndex: 0
      m_TileColorIndex: 0
      m_ObjectToInstantiate: {fileID: 0}
      m_TileFlags: 1
      m_ColliderType: 1
  - first: {x: 2, y: -15, z: 0}
    second:
      m_TileIndex: 45
      m_TileSpriteIndex: 33
      m_TileMatrixIndex: 0
      m_TileColorIndex: 0
      m_ObjectToInstantiate: {fileID: 0}
      m_TileFlags: 1
      m_ColliderType: 1
  - first: {x: 3, y: -15, z: 0}
    second:
      m_TileIndex: 44
      m_TileSpriteIndex: 32
      m_TileMatrixIndex: 0
      m_TileColorIndex: 0
      m_ObjectToInstantiate: {fileID: 0}
      m_TileFlags: 1
      m_ColliderType: 1
  - first: {x: 2, y: -14, z: 0}
    second:
      m_TileIndex: 39
      m_TileSpriteIndex: 27
      m_TileMatrixIndex: 0
      m_TileColorIndex: 0
      m_ObjectToInstantiate: {fileID: 0}
      m_TileFlags: 1
      m_ColliderType: 1
  - first: {x: 0, y: -13, z: 0}
    second:
      m_TileIndex: 36
      m_TileSpriteIndex: 24
      m_TileMatrixIndex: 0
      m_TileColorIndex: 0
      m_ObjectToInstantiate: {fileID: 0}
      m_TileFlags: 1
      m_ColliderType: 1
  - first: {x: 1, y: -13, z: 0}
    second:
      m_TileIndex: 35
      m_TileSpriteIndex: 23
      m_TileMatrixIndex: 0
      m_TileColorIndex: 0
      m_ObjectToInstantiate: {fileID: 0}
      m_TileFlags: 1
      m_ColliderType: 1
  - first: {x: 2, y: -13, z: 0}
    second:
      m_TileIndex: 34
      m_TileSpriteIndex: 22
      m_TileMatrixIndex: 0
      m_TileColorIndex: 0
      m_ObjectToInstantiate: {fileID: 0}
      m_TileFlags: 1
      m_ColliderType: 1
  - first: {x: 5, y: -13, z: 0}
    second:
      m_TileIndex: 9
      m_TileSpriteIndex: 19
      m_TileMatrixIndex: 0
      m_TileColorIndex: 0
      m_ObjectToInstantiate: {fileID: 0}
      m_TileFlags: 2
      m_ColliderType: 1
  - first: {x: 4, y: -11, z: 0}
    second:
      m_TileIndex: 6
      m_TileSpriteIndex: 3
      m_TileMatrixIndex: 0
      m_TileColorIndex: 0
      m_ObjectToInstantiate: {fileID: 0}
      m_TileFlags: 1
      m_ColliderType: 1
  - first: {x: -6, y: -10, z: 0}
    second:
      m_TileIndex: 43
      m_TileSpriteIndex: 31
      m_TileMatrixIndex: 0
      m_TileColorIndex: 0
      m_ObjectToInstantiate: {fileID: 0}
      m_TileFlags: 1
      m_ColliderType: 1
  - first: {x: -5, y: -10, z: 0}
    second:
      m_TileIndex: 47
      m_TileSpriteIndex: 35
      m_TileMatrixIndex: 0
      m_TileColorIndex: 0
      m_ObjectToInstantiate: {fileID: 0}
      m_TileFlags: 1
      m_ColliderType: 1
  - first: {x: -4, y: -10, z: 0}
    second:
      m_TileIndex: 46
      m_TileSpriteIndex: 34
      m_TileMatrixIndex: 0
      m_TileColorIndex: 0
      m_ObjectToInstantiate: {fileID: 0}
      m_TileFlags: 1
      m_ColliderType: 1
  - first: {x: -3, y: -10, z: 0}
    second:
      m_TileIndex: 43
      m_TileSpriteIndex: 31
      m_TileMatrixIndex: 1
      m_TileColorIndex: 0
      m_ObjectToInstantiate: {fileID: 0}
      m_TileFlags: 1
      m_ColliderType: 1
  - first: {x: -6, y: -9, z: 0}
    second:
      m_TileIndex: 38
      m_TileSpriteIndex: 26
      m_TileMatrixIndex: 0
      m_TileColorIndex: 0
      m_ObjectToInstantiate: {fileID: 0}
      m_TileFlags: 1
      m_ColliderType: 1
  - first: {x: -4, y: -9, z: 0}
    second:
      m_TileIndex: 40
      m_TileSpriteIndex: 28
      m_TileMatrixIndex: 0
      m_TileColorIndex: 0
      m_ObjectToInstantiate: {fileID: 0}
      m_TileFlags: 1
      m_ColliderType: 1
  - first: {x: -3, y: -9, z: 0}
    second:
      m_TileIndex: 38
      m_TileSpriteIndex: 26
      m_TileMatrixIndex: 1
      m_TileColorIndex: 0
      m_ObjectToInstantiate: {fileID: 0}
      m_TileFlags: 1
      m_ColliderType: 1
  - first: {x: 8, y: -9, z: 0}
    second:
      m_TileIndex: 42
      m_TileSpriteIndex: 30
      m_TileMatrixIndex: 0
      m_TileColorIndex: 0
      m_ObjectToInstantiate: {fileID: 0}
      m_TileFlags: 1
      m_ColliderType: 1
  - first: {x: -6, y: -8, z: 0}
    second:
      m_TileIndex: 33
      m_TileSpriteIndex: 21
      m_TileMatrixIndex: 0
      m_TileColorIndex: 0
      m_ObjectToInstantiate: {fileID: 0}
      m_TileFlags: 1
      m_ColliderType: 1
  - first: {x: -5, y: -8, z: 0}
    second:
      m_TileIndex: 41
      m_TileSpriteIndex: 29
      m_TileMatrixIndex: 0
      m_TileColorIndex: 0
      m_ObjectToInstantiate: {fileID: 0}
      m_TileFlags: 1
      m_ColliderType: 1
  - first: {x: -3, y: -8, z: 0}
    second:
      m_TileIndex: 33
      m_TileSpriteIndex: 21
      m_TileMatrixIndex: 1
      m_TileColorIndex: 0
      m_ObjectToInstantiate: {fileID: 0}
      m_TileFlags: 1
      m_ColliderType: 1
  - first: {x: 2, y: -8, z: 0}
    second:
      m_TileIndex: 8
      m_TileSpriteIndex: 4
      m_TileMatrixIndex: 0
      m_TileColorIndex: 0
      m_ObjectToInstantiate: {fileID: 0}
      m_TileFlags: 1
      m_ColliderType: 1
  - first: {x: 8, y: -8, z: 0}
    second:
      m_TileIndex: 37
      m_TileSpriteIndex: 25
      m_TileMatrixIndex: 0
      m_TileColorIndex: 0
      m_ObjectToInstantiate: {fileID: 0}
      m_TileFlags: 1
      m_ColliderType: 1
  - first: {x: -6, y: -7, z: 0}
    second:
      m_TileIndex: 28
      m_TileSpriteIndex: 16
      m_TileMatrixIndex: 0
      m_TileColorIndex: 0
      m_ObjectToInstantiate: {fileID: 0}
      m_TileFlags: 1
      m_ColliderType: 1
  - first: {x: -5, y: -7, z: 0}
    second:
      m_TileIndex: 30
      m_TileSpriteIndex: 18
      m_TileMatrixIndex: 0
      m_TileColorIndex: 0
      m_ObjectToInstantiate: {fileID: 0}
      m_TileFlags: 1
      m_ColliderType: 1
  - first: {x: -4, y: -7, z: 0}
    second:
      m_TileIndex: 29
      m_TileSpriteIndex: 17
      m_TileMatrixIndex: 0
      m_TileColorIndex: 0
      m_ObjectToInstantiate: {fileID: 0}
      m_TileFlags: 1
      m_ColliderType: 1
  - first: {x: -3, y: -7, z: 0}
    second:
      m_TileIndex: 28
      m_TileSpriteIndex: 16
      m_TileMatrixIndex: 1
      m_TileColorIndex: 0
      m_ObjectToInstantiate: {fileID: 0}
      m_TileFlags: 1
      m_ColliderType: 1
  - first: {x: 6, y: -7, z: 0}
    second:
      m_TileIndex: 31
      m_TileSpriteIndex: 19
      m_TileMatrixIndex: 0
      m_TileColorIndex: 0
      m_ObjectToInstantiate: {fileID: 0}
      m_TileFlags: 1
      m_ColliderType: 1
  - first: {x: 8, y: -7, z: 0}
    second:
      m_TileIndex: 32
      m_TileSpriteIndex: 20
      m_TileMatrixIndex: 0
      m_TileColorIndex: 0
      m_ObjectToInstantiate: {fileID: 0}
      m_TileFlags: 1
      m_ColliderType: 1
  - first: {x: -2, y: -3, z: 0}
    second:
      m_TileIndex: 12
      m_TileSpriteIndex: 46
      m_TileMatrixIndex: 0
      m_TileColorIndex: 11
      m_ObjectToInstantiate: {fileID: 0}
      m_TileFlags: 3
      m_ColliderType: 1
  - first: {x: -1, y: -3, z: 0}
    second:
      m_TileIndex: 13
      m_TileSpriteIndex: 47
      m_TileMatrixIndex: 0
      m_TileColorIndex: 9
      m_ObjectToInstantiate: {fileID: 0}
      m_TileFlags: 3
      m_ColliderType: 1
  - first: {x: 0, y: -3, z: 0}
    second:
      m_TileIndex: 14
      m_TileSpriteIndex: 48
      m_TileMatrixIndex: 0
      m_TileColorIndex: 7
      m_ObjectToInstantiate: {fileID: 0}
      m_TileFlags: 3
      m_ColliderType: 1
  - first: {x: 2, y: -3, z: 0}
    second:
      m_TileIndex: 15
      m_TileSpriteIndex: 49
      m_TileMatrixIndex: 0
      m_TileColorIndex: 6
      m_ObjectToInstantiate: {fileID: 0}
      m_TileFlags: 3
      m_ColliderType: 1
  - first: {x: -3, y: -1, z: 0}
    second:
      m_TileIndex: 24
      m_TileSpriteIndex: 51
      m_TileMatrixIndex: 0
      m_TileColorIndex: 0
      m_ObjectToInstantiate: {fileID: 0}
      m_TileFlags: 1
      m_ColliderType: 1
  - first: {x: -2, y: -1, z: 0}
    second:
      m_TileIndex: 25
      m_TileSpriteIndex: 50
      m_TileMatrixIndex: 0
      m_TileColorIndex: 0
      m_ObjectToInstantiate: {fileID: 0}
      m_TileFlags: 1
      m_ColliderType: 1
  - first: {x: -1, y: -1, z: 0}
    second:
      m_TileIndex: 26
      m_TileSpriteIndex: 14
      m_TileMatrixIndex: 0
      m_TileColorIndex: 0
      m_ObjectToInstantiate: {fileID: 0}
      m_TileFlags: 1
      m_ColliderType: 1
  - first: {x: 0, y: -1, z: 0}
    second:
      m_TileIndex: 27
      m_TileSpriteIndex: 15
      m_TileMatrixIndex: 0
      m_TileColorIndex: 0
      m_ObjectToInstantiate: {fileID: 0}
      m_TileFlags: 1
      m_ColliderType: 1
  - first: {x: 2, y: -1, z: 0}
    second:
      m_TileIndex: 11
      m_TileSpriteIndex: 53
      m_TileMatrixIndex: 0
      m_TileColorIndex: 8
      m_ObjectToInstantiate: {fileID: 0}
      m_TileFlags: 3
      m_ColliderType: 1
  - first: {x: -3, y: 0, z: 0}
    second:
      m_TileIndex: 22
      m_TileSpriteIndex: 13
      m_TileMatrixIndex: 0
      m_TileColorIndex: 0
      m_ObjectToInstantiate: {fileID: 0}
      m_TileFlags: 1
      m_ColliderType: 1
  - first: {x: -2, y: 0, z: 0}
    second:
      m_TileIndex: 4
      m_TileSpriteIndex: 12
      m_TileMatrixIndex: 0
      m_TileColorIndex: 0
      m_ObjectToInstantiate: {fileID: 0}
      m_TileFlags: 1
      m_ColliderType: 1
  - first: {x: -1, y: 0, z: 0}
    second:
      m_TileIndex: 10
      m_TileSpriteIndex: 52
      m_TileMatrixIndex: 0
      m_TileColorIndex: 0
      m_ObjectToInstantiate: {fileID: 0}
      m_TileFlags: 1
      m_ColliderType: 1
  - first: {x: 0, y: 0, z: 0}
    second:
      m_TileIndex: 23
      m_TileSpriteIndex: 54
      m_TileMatrixIndex: 0
      m_TileColorIndex: 0
      m_ObjectToInstantiate: {fileID: 0}
      m_TileFlags: 1
      m_ColliderType: 1
  - first: {x: 2, y: 0, z: 0}
    second:
      m_TileIndex: 7
      m_TileSpriteIndex: 55
      m_TileMatrixIndex: 0
      m_TileColorIndex: 10
      m_ObjectToInstantiate: {fileID: 0}
      m_TileFlags: 3
      m_ColliderType: 1
  - first: {x: -3, y: 1, z: 0}
    second:
      m_TileIndex: 20
      m_TileSpriteIndex: 11
      m_TileMatrixIndex: 0
      m_TileColorIndex: 0
      m_ObjectToInstantiate: {fileID: 0}
      m_TileFlags: 1
      m_ColliderType: 1
  - first: {x: -2, y: 1, z: 0}
    second:
      m_TileIndex: 0
      m_TileSpriteIndex: 10
      m_TileMatrixIndex: 0
      m_TileColorIndex: 0
      m_ObjectToInstantiate: {fileID: 0}
      m_TileFlags: 1
      m_ColliderType: 1
  - first: {x: -1, y: 1, z: 0}
    second:
      m_TileIndex: 1
      m_TileSpriteIndex: 9
      m_TileMatrixIndex: 0
      m_TileColorIndex: 0
      m_ObjectToInstantiate: {fileID: 0}
      m_TileFlags: 1
      m_ColliderType: 1
  - first: {x: 0, y: 1, z: 0}
    second:
      m_TileIndex: 21
      m_TileSpriteIndex: 56
      m_TileMatrixIndex: 0
      m_TileColorIndex: 0
      m_ObjectToInstantiate: {fileID: 0}
      m_TileFlags: 1
      m_ColliderType: 1
  - first: {x: 2, y: 1, z: 0}
    second:
      m_TileIndex: 3
      m_TileSpriteIndex: 57
      m_TileMatrixIndex: 0
      m_TileColorIndex: 12
      m_ObjectToInstantiate: {fileID: 0}
      m_TileFlags: 3
      m_ColliderType: 1
  - first: {x: -3, y: 2, z: 0}
    second:
      m_TileIndex: 16
      m_TileSpriteIndex: 8
      m_TileMatrixIndex: 0
      m_TileColorIndex: 0
      m_ObjectToInstantiate: {fileID: 0}
      m_TileFlags: 1
      m_ColliderType: 1
  - first: {x: -2, y: 2, z: 0}
    second:
      m_TileIndex: 17
      m_TileSpriteIndex: 7
      m_TileMatrixIndex: 0
      m_TileColorIndex: 0
      m_ObjectToInstantiate: {fileID: 0}
      m_TileFlags: 1
      m_ColliderType: 1
  - first: {x: -1, y: 2, z: 0}
    second:
      m_TileIndex: 18
      m_TileSpriteIndex: 6
      m_TileMatrixIndex: 0
      m_TileColorIndex: 0
      m_ObjectToInstantiate: {fileID: 0}
      m_TileFlags: 1
      m_ColliderType: 1
  - first: {x: 0, y: 2, z: 0}
    second:
      m_TileIndex: 19
      m_TileSpriteIndex: 5
      m_TileMatrixIndex: 0
      m_TileColorIndex: 0
      m_ObjectToInstantiate: {fileID: 0}
      m_TileFlags: 1
      m_ColliderType: 1
  - first: {x: 0, y: 5, z: 0}
    second:
      m_TileIndex: 9
      m_TileSpriteIndex: 19
      m_TileMatrixIndex: 0
      m_TileColorIndex: 0
      m_ObjectToInstantiate: {fileID: 0}
      m_TileFlags: 2
      m_ColliderType: 1
  m_AnimatedTiles: {}
  m_TileAssetArray:
  - m_RefCount: 1
    m_Data: {fileID: 11400000, guid: 379fabc1e6348ba4f8d39bedce9c6440, type: 2}
  - m_RefCount: 1
    m_Data: {fileID: 11400000, guid: 46e0763e7550f644ea63ee423e819fdc, type: 2}
  - m_RefCount: 0
    m_Data: {fileID: 0}
  - m_RefCount: 1
    m_Data: {fileID: 0}
  - m_RefCount: 1
    m_Data: {fileID: 11400000, guid: 70da7777167633348bb4f4442d109951, type: 2}
  - m_RefCount: 0
    m_Data: {fileID: 0}
  - m_RefCount: 1
    m_Data: {fileID: 11400000, guid: 0dc7ac1cb5ef9074c9dcfd75c270bf1d, type: 2}
  - m_RefCount: 1
    m_Data: {fileID: 0}
  - m_RefCount: 1
    m_Data: {fileID: 11400000, guid: ba5747a81a7398048a83cc457d87e4aa, type: 2}
  - m_RefCount: 2
    m_Data: {fileID: 11400000, guid: 477aec70aaa4b914c8f8cdbb1bd85377, type: 2}
  - m_RefCount: 1
    m_Data: {fileID: 11400000, guid: 9ef1f4305c3e55e4297007ff85aaa1b2, type: 2}
  - m_RefCount: 1
    m_Data: {fileID: 0}
  - m_RefCount: 1
    m_Data: {fileID: 0}
  - m_RefCount: 1
    m_Data: {fileID: 0}
  - m_RefCount: 1
    m_Data: {fileID: 0}
  - m_RefCount: 1
    m_Data: {fileID: 0}
  - m_RefCount: 1
    m_Data: {fileID: 11400000, guid: d961bb5a6824f5243ac1c99b1e479338, type: 2}
  - m_RefCount: 1
    m_Data: {fileID: 11400000, guid: 3a02f19fd0ba6844a8a37cd9ebf92c18, type: 2}
  - m_RefCount: 1
    m_Data: {fileID: 11400000, guid: 7f1a565b384990443954d6fafed30a25, type: 2}
  - m_RefCount: 1
    m_Data: {fileID: 11400000, guid: fcae1b983e5c6024f87c0675731a472c, type: 2}
  - m_RefCount: 1
    m_Data: {fileID: 11400000, guid: 69f41d72aa184714ab1b2f973c32272b, type: 2}
  - m_RefCount: 1
    m_Data: {fileID: 11400000, guid: fd74fb08a41f5564f8b1a8eced38a15e, type: 2}
  - m_RefCount: 1
    m_Data: {fileID: 11400000, guid: 60163b38919fe2c45b979d932eb3a97c, type: 2}
  - m_RefCount: 1
    m_Data: {fileID: 11400000, guid: e4025df1302835b4fbd8c385a5ce2dd8, type: 2}
  - m_RefCount: 1
    m_Data: {fileID: 11400000, guid: 6a0b33d01466bf340bdcc995c31e32bd, type: 2}
  - m_RefCount: 1
    m_Data: {fileID: 11400000, guid: 7f1b075e678c90344b0147cd1f82fc99, type: 2}
  - m_RefCount: 1
    m_Data: {fileID: 11400000, guid: 6e3a8e83e95773a459139a43c5f75cab, type: 2}
  - m_RefCount: 1
    m_Data: {fileID: 11400000, guid: 8c20e11c4cc55ee4c9c6f4f0b8968218, type: 2}
  - m_RefCount: 2
    m_Data: {fileID: 11400000, guid: 0fbb9f11d48e0b942975341841dcd78a, type: 2}
  - m_RefCount: 1
    m_Data: {fileID: 11400000, guid: 4ff26324dee535448a1d8603eb85e1dc, type: 2}
  - m_RefCount: 1
    m_Data: {fileID: 11400000, guid: 36c906e34b1118b4d88477e27b468080, type: 2}
  - m_RefCount: 1
    m_Data: {fileID: 11400000, guid: f95f85a3a202c1743b123ff50ba4d583, type: 2}
  - m_RefCount: 1
    m_Data: {fileID: 11400000, guid: 7b3adcc18c800cb46a87f84c1b7c89b9, type: 2}
  - m_RefCount: 2
    m_Data: {fileID: 11400000, guid: 1080409f4adedb748966eade98980e98, type: 2}
  - m_RefCount: 1
    m_Data: {fileID: 11400000, guid: daca259876e111744baaea0dcc038ef3, type: 2}
  - m_RefCount: 1
    m_Data: {fileID: 11400000, guid: 3ec05ab54d3310a49a8280914a392ced, type: 2}
  - m_RefCount: 1
    m_Data: {fileID: 11400000, guid: eb2fbb50cfad24348b0f3431357e8a30, type: 2}
  - m_RefCount: 1
    m_Data: {fileID: 11400000, guid: ccce234421a90bc468597af31a058e12, type: 2}
  - m_RefCount: 2
    m_Data: {fileID: 11400000, guid: 43a5e1f960967b245ae3020a2365b42a, type: 2}
  - m_RefCount: 1
    m_Data: {fileID: 11400000, guid: 9a237dbaf8c508345993b2e58ccbe244, type: 2}
  - m_RefCount: 1
    m_Data: {fileID: 11400000, guid: 2e7b261688274ee4cbf641f28f441d54, type: 2}
  - m_RefCount: 1
    m_Data: {fileID: 11400000, guid: 348b0029ad5c1944c8da3e02009e6290, type: 2}
  - m_RefCount: 1
    m_Data: {fileID: 11400000, guid: 9be00126740424b4aa17e5981b841568, type: 2}
  - m_RefCount: 2
    m_Data: {fileID: 11400000, guid: d90f788befde7054db8a0ba9cd637d27, type: 2}
  - m_RefCount: 1
    m_Data: {fileID: 11400000, guid: ff60aa0aab629434a8a56cfacc96c69b, type: 2}
  - m_RefCount: 1
    m_Data: {fileID: 11400000, guid: 1d7cacffb28cff54d8c84cbe1c97ebd2, type: 2}
  - m_RefCount: 1
    m_Data: {fileID: 11400000, guid: 97f3b4a2c96e3144384d9f7004d8871e, type: 2}
  - m_RefCount: 1
    m_Data: {fileID: 11400000, guid: 7dba7e44a1aaa584f851b25f3504a3c7, type: 2}
  - m_RefCount: 1
    m_Data: {fileID: 11400000, guid: 8bfb8b1f45408e94aa2f44a0f63e0f08, type: 2}
  - m_RefCount: 1
    m_Data: {fileID: 11400000, guid: 842217e072a70894b9873cc5cd4b4602, type: 2}
  - m_RefCount: 1
    m_Data: {fileID: 11400000, guid: c6d2d449dc74217408e85c640fc0af87, type: 2}
  - m_RefCount: 1
    m_Data: {fileID: 11400000, guid: 9f80f76b6bbf9164d8450b7ca6e74435, type: 2}
  - m_RefCount: 1
    m_Data: {fileID: 11400000, guid: 9df40f23e14159543b19a41cb72e6532, type: 2}
  - m_RefCount: 1
    m_Data: {fileID: 11400000, guid: a2099c0957f4e794ca11821e39effaea, type: 2}
  - m_RefCount: 1
    m_Data: {fileID: 11400000, guid: cc277a49f204dcc4ba8e2d55edc4c771, type: 2}
  - m_RefCount: 1
    m_Data: {fileID: 11400000, guid: 0fa4857020d45a248be70e8898bd4afc, type: 2}
  - m_RefCount: 1
    m_Data: {fileID: 11400000, guid: bc6075765678c1b4b9366a8b1fd61294, type: 2}
  - m_RefCount: 1
    m_Data: {fileID: 11400000, guid: 7b682f9658588b34c959d9bbc0152cc6, type: 2}
  m_TileSpriteArray:
  - m_RefCount: 0
    m_Data: {fileID: 0}
  - m_RefCount: 0
    m_Data: {fileID: 0}
  - m_RefCount: 0
    m_Data: {fileID: 0}
  - m_RefCount: 1
    m_Data: {fileID: 21300000, guid: 6a664aaadb9ae3d419ddf311b21691c5, type: 3}
  - m_RefCount: 1
    m_Data: {fileID: 21300000, guid: b628bfd14df90dd4ca760384d9747207, type: 3}
  - m_RefCount: 1
    m_Data: {fileID: 289114549585270027, guid: ec8c9d87b1216e9439db8abc1b904b1d, type: 3}
  - m_RefCount: 1
    m_Data: {fileID: 7622431064557552515, guid: ec8c9d87b1216e9439db8abc1b904b1d,
      type: 3}
  - m_RefCount: 1
    m_Data: {fileID: -2276109588449258574, guid: ec8c9d87b1216e9439db8abc1b904b1d,
      type: 3}
  - m_RefCount: 1
    m_Data: {fileID: -6414447125379547148, guid: ec8c9d87b1216e9439db8abc1b904b1d,
      type: 3}
  - m_RefCount: 1
    m_Data: {fileID: 3104076937310148729, guid: ec8c9d87b1216e9439db8abc1b904b1d,
      type: 3}
  - m_RefCount: 1
    m_Data: {fileID: 7565696428887314959, guid: ec8c9d87b1216e9439db8abc1b904b1d,
      type: 3}
  - m_RefCount: 1
    m_Data: {fileID: -5862157076625757123, guid: ec8c9d87b1216e9439db8abc1b904b1d,
      type: 3}
  - m_RefCount: 1
    m_Data: {fileID: -5428507737112726026, guid: ec8c9d87b1216e9439db8abc1b904b1d,
      type: 3}
  - m_RefCount: 1
    m_Data: {fileID: 4021284656184010451, guid: ec8c9d87b1216e9439db8abc1b904b1d,
      type: 3}
  - m_RefCount: 1
    m_Data: {fileID: 124453552786969483, guid: ec8c9d87b1216e9439db8abc1b904b1d, type: 3}
  - m_RefCount: 1
    m_Data: {fileID: -3357515910591759238, guid: ec8c9d87b1216e9439db8abc1b904b1d,
      type: 3}
  - m_RefCount: 2
    m_Data: {fileID: -2464266514383608195, guid: f083728701a08a1499b4d0a8da69a78b,
      type: 3}
  - m_RefCount: 1
    m_Data: {fileID: -1236713991046615032, guid: f083728701a08a1499b4d0a8da69a78b,
      type: 3}
  - m_RefCount: 1
    m_Data: {fileID: -3326836957996475874, guid: f083728701a08a1499b4d0a8da69a78b,
      type: 3}
  - m_RefCount: 3
    m_Data: {fileID: 7323906098350758705, guid: f083728701a08a1499b4d0a8da69a78b,
      type: 3}
  - m_RefCount: 1
    m_Data: {fileID: -5972448355421142556, guid: f083728701a08a1499b4d0a8da69a78b,
      type: 3}
  - m_RefCount: 2
    m_Data: {fileID: -4977721373819348528, guid: f083728701a08a1499b4d0a8da69a78b,
      type: 3}
  - m_RefCount: 1
    m_Data: {fileID: 7799159119227759483, guid: f083728701a08a1499b4d0a8da69a78b,
      type: 3}
  - m_RefCount: 1
    m_Data: {fileID: 1958745200148787322, guid: f083728701a08a1499b4d0a8da69a78b,
      type: 3}
  - m_RefCount: 1
    m_Data: {fileID: 7953296568139915108, guid: f083728701a08a1499b4d0a8da69a78b,
      type: 3}
  - m_RefCount: 1
    m_Data: {fileID: -2755257858965140955, guid: f083728701a08a1499b4d0a8da69a78b,
      type: 3}
  - m_RefCount: 2
    m_Data: {fileID: -3493280607249542649, guid: f083728701a08a1499b4d0a8da69a78b,
      type: 3}
  - m_RefCount: 1
    m_Data: {fileID: -7671020578840251174, guid: f083728701a08a1499b4d0a8da69a78b,
      type: 3}
  - m_RefCount: 1
    m_Data: {fileID: 6972465368094823745, guid: f083728701a08a1499b4d0a8da69a78b,
      type: 3}
  - m_RefCount: 1
    m_Data: {fileID: -7832389824997676707, guid: f083728701a08a1499b4d0a8da69a78b,
      type: 3}
  - m_RefCount: 1
    m_Data: {fileID: 2766323726693326924, guid: f083728701a08a1499b4d0a8da69a78b,
      type: 3}
  - m_RefCount: 2
    m_Data: {fileID: -3503154757471595975, guid: f083728701a08a1499b4d0a8da69a78b,
      type: 3}
  - m_RefCount: 1
    m_Data: {fileID: -7647882774218309960, guid: f083728701a08a1499b4d0a8da69a78b,
      type: 3}
  - m_RefCount: 1
    m_Data: {fileID: -7175372319361646676, guid: f083728701a08a1499b4d0a8da69a78b,
      type: 3}
  - m_RefCount: 1
    m_Data: {fileID: -2488111991826676060, guid: f083728701a08a1499b4d0a8da69a78b,
      type: 3}
  - m_RefCount: 1
    m_Data: {fileID: -1667590691872097069, guid: f083728701a08a1499b4d0a8da69a78b,
      type: 3}
  - m_RefCount: 1
    m_Data: {fileID: -3542295685721467227, guid: f083728701a08a1499b4d0a8da69a78b,
      type: 3}
  - m_RefCount: 1
    m_Data: {fileID: 6192572789505845407, guid: f083728701a08a1499b4d0a8da69a78b,
      type: 3}
  - m_RefCount: 1
    m_Data: {fileID: -5134054752372163016, guid: f083728701a08a1499b4d0a8da69a78b,
      type: 3}
  - m_RefCount: 1
    m_Data: {fileID: -3487811798477773700, guid: f083728701a08a1499b4d0a8da69a78b,
      type: 3}
  - m_RefCount: 1
    m_Data: {fileID: -8076291029264883859, guid: f083728701a08a1499b4d0a8da69a78b,
      type: 3}
  - m_RefCount: 1
    m_Data: {fileID: -4897907173415269231, guid: f083728701a08a1499b4d0a8da69a78b,
      type: 3}
  - m_RefCount: 1
    m_Data: {fileID: 3747544219709766277, guid: f083728701a08a1499b4d0a8da69a78b,
      type: 3}
  - m_RefCount: 1
    m_Data: {fileID: -5576478142290952502, guid: f083728701a08a1499b4d0a8da69a78b,
      type: 3}
  - m_RefCount: 1
    m_Data: {fileID: -1076426586580465502, guid: f083728701a08a1499b4d0a8da69a78b,
      type: 3}
  - m_RefCount: 1
    m_Data: {fileID: 3803662930465603148, guid: f083728701a08a1499b4d0a8da69a78b,
      type: 3}
  - m_RefCount: 1
    m_Data: {fileID: 0}
  - m_RefCount: 1
    m_Data: {fileID: 0}
  - m_RefCount: 1
    m_Data: {fileID: 0}
  - m_RefCount: 1
    m_Data: {fileID: 0}
  - m_RefCount: 1
    m_Data: {fileID: -568864715573125675, guid: ec8c9d87b1216e9439db8abc1b904b1d,
      type: 3}
  - m_RefCount: 1
    m_Data: {fileID: -1693060807349068911, guid: ec8c9d87b1216e9439db8abc1b904b1d,
      type: 3}
  - m_RefCount: 1
    m_Data: {fileID: 8721707918184771119, guid: ec8c9d87b1216e9439db8abc1b904b1d,
      type: 3}
  - m_RefCount: 1
    m_Data: {fileID: 0}
  - m_RefCount: 1
    m_Data: {fileID: 374688490947754656, guid: ec8c9d87b1216e9439db8abc1b904b1d, type: 3}
  - m_RefCount: 1
    m_Data: {fileID: 0}
  - m_RefCount: 1
    m_Data: {fileID: 4777146490511550170, guid: ec8c9d87b1216e9439db8abc1b904b1d,
      type: 3}
  - m_RefCount: 1
    m_Data: {fileID: 0}
  m_TileMatrixArray:
  - m_RefCount: 57
    m_Data:
      e00: 1
      e01: 0
      e02: 0
      e03: 0
      e10: 0
      e11: 1
      e12: 0
      e13: 0
      e20: 0
      e21: 0
      e22: 1
      e23: 0
      e30: 0
      e31: 0
      e32: 0
      e33: 1
  - m_RefCount: 4
    m_Data:
      e00: -1
      e01: 0
      e02: 0
      e03: 0
      e10: -0
      e11: 1
      e12: 0
      e13: 0
      e20: -0
      e21: 0
      e22: 1
      e23: 0
      e30: 0
      e31: 0
      e32: 0
      e33: 1
  m_TileColorArray:
  - m_RefCount: 54
    m_Data: {r: 1, g: 1, b: 1, a: 1}
  - m_RefCount: 0
    m_Data: {r: 0, g: 0, b: 0, a: 0}
  - m_RefCount: 0
    m_Data: {r: 0, g: 0, b: 0, a: 0}
  - m_RefCount: 0
    m_Data: {r: 0, g: 0, b: 0, a: 0}
  - m_RefCount: 0
    m_Data: {r: 0, g: 0, b: 0, a: 0}
  - m_RefCount: 0
    m_Data: {r: 3.6694533e-31, g: 3.6694533e-31, b: 3.6694533e-31, a: 3.6694533e-31}
  - m_RefCount: 1
    m_Data: {r: 0.96233696, g: 0.59489965, b: 0.61744434, a: 1}
  - m_RefCount: 1
    m_Data: {r: 0.8012793, g: 0.32279277, b: 0.38016844, a: 1}
  - m_RefCount: 1
    m_Data: {r: 0.8149959, g: 0.55082333, b: 0.566911, a: 1}
  - m_RefCount: 1
    m_Data: {r: 0.8498309, g: 0.39834103, b: 0.4569833, a: 1}
  - m_RefCount: 1
    m_Data: {r: 0.77369153, g: 0.46008465, b: 0.5261301, a: 1}
  - m_RefCount: 1
    m_Data: {r: 0.82544416, g: 0.478453, b: 0.57066685, a: 1}
  - m_RefCount: 1
    m_Data: {r: 0.9927481, g: 0.4713366, b: 0.48185906, a: 1}
  m_AnimationFrameRate: 1
  m_Color: {r: 1, g: 1, b: 1, a: 1}
  m_Origin: {x: -10, y: -17, z: 0}
  m_Size: {x: 19, y: 23, z: 1}
  m_TileAnchor: {x: 0.5, y: 0.5, z: 0}
  m_TileOrientation: 0
  m_TileOrientationMatrix:
    e00: 1
    e01: 0
    e02: 0
    e03: 0
    e10: 0
    e11: 1
    e12: 0
    e13: 0
    e20: 0
    e21: 0
    e22: 1
    e23: 0
    e30: 0
    e31: 0
    e32: 0
    e33: 1
--- !u!483693784 &7524357107197142353
TilemapRenderer:
  m_ObjectHideFlags: 0
  m_CorrespondingSourceObject: {fileID: 0}
  m_PrefabInstance: {fileID: 0}
  m_PrefabAsset: {fileID: 0}
  m_GameObject: {fileID: 5624752313627604345}
  m_Enabled: 0
  m_CastShadows: 0
  m_ReceiveShadows: 0
  m_DynamicOccludee: 0
  m_MotionVectors: 1
  m_LightProbeUsage: 0
  m_ReflectionProbeUsage: 0
  m_RenderingLayerMask: 1
  m_RendererPriority: 0
  m_Materials:
  - {fileID: 10754, guid: 0000000000000000f000000000000000, type: 0}
  m_StaticBatchInfo:
    firstSubMesh: 0
    subMeshCount: 0
  m_StaticBatchRoot: {fileID: 0}
  m_ProbeAnchor: {fileID: 0}
  m_LightProbeVolumeOverride: {fileID: 0}
  m_ScaleInLightmap: 1
  m_ReceiveGI: 1
  m_PreserveUVs: 0
  m_IgnoreNormalsForChartDetection: 0
  m_ImportantGI: 0
  m_StitchLightmapSeams: 1
  m_SelectedEditorRenderState: 0
  m_MinimumChartSize: 4
  m_AutoUVMaxDistance: 0.5
  m_AutoUVMaxAngle: 89
  m_LightmapParameters: {fileID: 0}
  m_SortingLayerID: 0
  m_SortingLayer: 0
  m_SortingOrder: 0
  m_ChunkSize: {x: 32, y: 32, z: 32}
  m_ChunkCullingBounds: {x: 0, y: 0, z: 0}
  m_MaxChunkCount: 16
  m_MaxFrameAge: 16
  m_SortOrder: 0
  m_Mode: 0
  m_DetectChunkCullingBounds: 0
  m_MaskInteraction: 0
--- !u!114 &8496418439145337498
MonoBehaviour:
  m_ObjectHideFlags: 0
  m_CorrespondingSourceObject: {fileID: 0}
  m_PrefabInstance: {fileID: 0}
  m_PrefabAsset: {fileID: 0}
  m_GameObject: {fileID: 0}
  m_Enabled: 1
  m_EditorHideFlags: 0
  m_Script: {fileID: 12395, guid: 0000000000000000e000000000000000, type: 0}
  m_Name: Palette Settings
  m_EditorClassIdentifier: 
  cellSizing: 0
